{
  "project_info": {
    "project_number": "797783605693",
    "firebase_url": "https://dvd-infinity.firebaseio.com",
    "project_id": "dvd-infinity",
    "storage_bucket": "dvd-infinity.appspot.com"
  },
  "client": [
    {
      "client_info": {
        "mobilesdk_app_id": "1:797783605693:android:a42b581b9416b41f",
        "android_client_info": {
          "package_name": "com.givaldoms.validadoringresso"
        }
      },
      "oauth_client": [
        {
          "client_id": "797783605693-h4kidv200heorn5h61ivrvjcc90mcgp4.apps.googleusercontent.com",
          "client_type": 1,
          "android_info": {
            "package_name": "com.givaldoms.validadoringresso",
            "certificate_hash": "23db62c57e73a4b5275072650572a292e3194fec"
          }
        },
        {
          "client_id": "797783605693-cvhfmh76hombi6fe6eqrgnhm3pcnopqn.apps.googleusercontent.com",
          "client_type": 3
        }
      ],
      "api_key": [
        {
          "current_key": "AIzaSyCDIge5NOxAHFShFwQxrW6oBLuEAt7n7sc"
        }
      ],
      "services": {
        "analytics_service": {
          "status": 1
        },
        "appinvite_service": {
          "status": 2,
          "other_platform_oauth_client": [
            {
              "client_id": "797783605693-cvhfmh76hombi6fe6eqrgnhm3pcnopqn.apps.googleusercontent.com",
              "client_type": 3
            }
          ]
        },
        "ads_service": {
          "status": 2
        }
      }
    }
  ],
  "configuration_version": "1"
}